{
	"name": "Tetris",
	"short_name": "Tetris",
	"lang": "en-US",
	"start_url": "https://gitlab.com/kevmeister/tetris/Tetris/Tetris.htm",
	"display": "standalone",
	"orientation": "portrait",
	"theme_color": "#000000",
	"background_color": "#000000",
	"icons": [
		{
			"src": "https://gitlab.com/kevmeister/Tetris/Tetris/TetrisFavIcon_192x192.png",
			"sizes": "192x192",
			"type": "image/png"
		},
		{
			"src": "https://gitlab.com/kevmeister/tetris/Tetris/TetrisFavIcon_512x512.png",
			"sizes": "512x512",
			"type": "image/png"
		}
	]
}